{
  "name": "dscserver",
  "description": "Installs/Configures dscserver",
  "long_description": "Installs/Configures dscserver",
  "maintainer": "The Authors",
  "maintainer_email": "you@example.com",
  "license": "all_rights",
  "platforms": {
  },
  "dependencies": {
    "java": ">= 0.0.0"
  },
  "recommendations": {
  },
  "suggestions": {
  },
  "conflicting": {
  },
  "providing": {
  },
  "replacing": {
  },
  "attributes": {
  },
  "groupings": {
  },
  "recipes": {
  },
  "version": "0.1.0",
  "source_url": "",
  "issues_url": ""
}